Period,Frequency,Acceleration,Velocity,Displacement
0.1,10.00000,-91.50,-127.46,-163.43
0.22,4.54545,-97.40,-126.52,-155.63
0.32,3.12500,-110.50,-136.37,-162.23
0.8,1.25000,-120.00,-137.90,-155.80
3.8,0.26316,-98.00,-102.37,-106.74
4.6,0.21739,-96.50,-99.21,-101.91
6.3,0.15873,-101.00,-100.98,-100.95
7.9,0.12658,-113.46,-111.47,-109.48
15.4,0.06494,-119.99,-112.21,-104.42
20.0,0.05000,-138.50,-128.44,-118.39
354.8,0.00282,-125.99,-90.96,-55.92
100000.0,0.00001,-48.51,35.53,119.56
